{
  "local": {
    "swagger": {
      "swaggerDefinition": {
        "info": {
          "title": "ACNAPI Microservices",
          "description": "Local Environment",
          "version": "1.0.0"
        }
      },
      "apis": ["./index.js"] 
    }
  },
  "development": {
    "swagger": {
      "swaggerDefinition": {
        "info": {
          "title": "ACNAPI Microservices",
          "description": "Development Environment",
          "version": "1.0.0"
        }
      },
      "apis": ["./index.js"] 
    }
  },
  "production": {
    "swagger": {
      "swaggerDefinition": {
        "info": {
          "title": "ACNAPI Microservices",
          "description": "Your Potential, Our Passion.",
          "version": "1.0.0"
        }
      },
      "apis": ["./index.js"] 
    }
  }
}
